…
### Results and visualization

The identification list can be obtained using:


```r
idList(ex)
```

```
## # A tibble: 124 × 18
##    AlignID tmean FoundIn Name.1     Match…¹ DB.Id.1 CAS.1 Formu…² Name.2 Match…³
##      <dbl> <dbl>   <dbl> <chr>      <chr>   <chr>   <chr> <chr>   <chr>  <chr>  
##  1      13  5.79       9 Harmaline… 88.58   "434"   6027… "C16H2… Dopam… 88.40  
##  2      17  5.88       9 2-Hydroxy… 87.89   " 25"   142-… ""      4-Hyd… 84.63  
##  3      16  5.96       9 2-Hydroxy… 99.27   " 25"   142-… ""      4-Hyd… 96.55  
##  4      25  6.08       9 2'-Deoxya… 59.47   "372"   1637… "C22H4… 2'-De… 58.63  
##  5      27  6.18       9 2,3-Bisph… 75.78   "456"   1443… ""      DL-Ho… 46.51  
##  6      35  6.36       9 DL-2,3-Di… 94.62   "334"   5487… "C18H4… Oxami… 78.25  
##  7      39  6.50       9 (R)-(-)-P… 94.10   "322"   61-7… "C18H3… (-)-E… 93.98  
##  8      44  6.63       9 Malonic a… 52.87   "252"   141-… "C13H2… Dihyd… 36.97  
##  9      45  6.66       9 L-Alanine… 99.11   "335"   56-4… "C12H3… (R)-(… 98.86  
## 10      51  6.75       9 L-Alanine… 99.15   "335"   56-4… "C12H3… (R)-(… 98.97  
## # … with 114 more rows, 8 more variables: DB.Id.2 <chr>, CAS.2 <chr>,
## #   Formula.2 <chr>, Name.3 <chr>, MatchFactor.3 <chr>, DB.Id.3 <chr>,
## #   CAS.3 <chr>, Formula.3 <chr>, and abbreviated variable names
## #   ¹​MatchFactor.1, ²​Formula.1, ³​MatchFactor.2
```

The alignment list can be returned using:

```r
alignList(ex)
```

```
## # A tibble: 124 × 13
##    AlignID Factor  tmean FoundIn 0709_…¹ 0709_…² 0709_…³ 0709_…⁴ 0709_…⁵ 0709_…⁶
##      <int> <chr>   <dbl>   <dbl>   <dbl>   <dbl>   <dbl>   <dbl>   <dbl>   <dbl>
##  1      13 Factor…  5.79       9  4.68e4  4.33e4   49578   40353  8.67e4  6.75e4
##  2      17 Factor…  5.88       9  1.53e5  1.97e5  102053  105891  9.07e4  2.25e5
##  3      16 Factor…  5.96       9  4.28e5  5.34e5  525813  588514  4.46e5  5.34e5
##  4      25 Factor…  6.08       9  6.91e4  9.49e4   93110   90711  9.22e4  9.22e4
##  5      27 Factor…  6.18       9  4.07e5  6.24e5  484318  456469  4.90e5  4.03e5
##  6      35 Factor…  6.36       9  3.39e4  4.75e4   44354   34835  4.31e4  3.73e4
##  7      39 Factor…  6.50       9  2.66e4  3.56e4   37724   29419  3.24e4  3.05e4
##  8      44 Factor…  6.63       9  4.55e6  4.74e6 4642613 5242164  4.99e6  5.70e6
##  9      45 Factor…  6.66       9  3.02e6  1.62e6 1544762 1223930  1.44e6  1.51e6
## 10      51 Factor…  6.75       9  8.19e5  9.43e5  923088  811215  8.78e5  7.74e5
## # … with 114 more rows, 3 more variables: `0709_485` <dbl>, `0709_493` <dbl>,
## #   `0709_496` <dbl>, and abbreviated variable names ¹​`0709_468`, ²​`0709_470`,
## #   ³​`0709_471`, ⁴​`0709_474`, ⁵​`0709_475`, ⁶​`0709_479`
```

And the final data list can be returned using:


```r
dataList(ex)
```

```
## # A tibble: 124 × 27
##    AlignID tmean FoundIn Name.1     Match…¹ DB.Id.1 CAS.1 Formu…² Name.2 Match…³
##      <dbl> <dbl>   <dbl> <chr>      <chr>   <chr>   <chr> <chr>   <chr>  <chr>  
##  1      13  5.79       9 Harmaline… 88.58   "434"   6027… "C16H2… Dopam… 88.40  
##  2      16  5.96       9 2-Hydroxy… 99.27   " 25"   142-… ""      4-Hyd… 96.55  
##  3      17  5.88       9 2-Hydroxy… 87.89   " 25"   142-… ""      4-Hyd… 84.63  
##  4      25  6.08       9 2'-Deoxya… 59.47   "372"   1637… "C22H4… 2'-De… 58.63  
##  5      27  6.18       9 2,3-Bisph… 75.78   "456"   1443… ""      DL-Ho… 46.51  
##  6      35  6.36       9 DL-2,3-Di… 94.62   "334"   5487… "C18H4… Oxami… 78.25  
##  7      39  6.50       9 (R)-(-)-P… 94.10   "322"   61-7… "C18H3… (-)-E… 93.98  
##  8      44  6.63       9 Malonic a… 52.87   "252"   141-… "C13H2… Dihyd… 36.97  
##  9      45  6.66       9 L-Alanine… 99.11   "335"   56-4… "C12H3… (R)-(… 98.86  
## 10      51  6.75       9 L-Alanine… 99.15   "335"   56-4… "C12H3… (R)-(… 98.97  
## # … with 114 more rows, 17 more variables: DB.Id.2 <chr>, CAS.2 <chr>,
## #   Formula.2 <chr>, Name.3 <chr>, MatchFactor.3 <chr>, DB.Id.3 <chr>,
## #   CAS.3 <chr>, Formula.3 <chr>, `0709_468` <dbl>, `0709_470` <dbl>,
## #   `0709_471` <dbl>, `0709_474` <dbl>, `0709_475` <dbl>, `0709_479` <dbl>,
## #   `0709_485` <dbl>, `0709_493` <dbl>, `0709_496` <dbl>, and abbreviated
## #   variable names ¹​MatchFactor.1, ²​Formula.1, ³​MatchFactor.2
```
…
